{
  "data": [
    {
      "customer_id": "06b8999e2fba1a1fbc88172c00ba8bc7",
      "customer_unique_id": "861eff4711a542e4b93843c6dd7febb0",
      "customer_zip_code_prefix": "14409",
      "customer_city": "franca",
      "customer_state": "SP"
    },
    {
      "customer_id": "18955e83d337fd6b2def6b18a428ac77",
      "customer_unique_id": "290c77bc529b7ac935b93aa66c333dc3",
      "customer_zip_code_prefix": "9790",
      "customer_city": "sao bernardo do campo",
      "customer_state": "SP"
    },
    {
      "customer_id": "4e7b3e00288586ebd08712fdd0374a03",
      "customer_unique_id": "060e732b5b29e8181a18229c7b0b2b5e",
      "customer_zip_code_prefix": "1151",
      "customer_city": "sao paulo",
      "customer_state": "SP"
    },
    {
      "customer_id": "b2b6027bc5c5109e529d4dc6358b12c3",
      "customer_unique_id": "259dac757896d24d7702b9acbbff3f3c",
      "customer_zip_code_prefix": "8775",
      "customer_city": "",
      "customer_state": "São Paulo"
    },
    {
      "customer_id": "4f2d8ab171c80ec8364f7c12e35b23ad",
      "customer_unique_id": "345ecd01c38d18a9036ed96c73b8d066",
      "customer_zip_code_prefix": "13056",
      "customer_city": "campinas",
      "customer_state": "SP"
    },
    {
      "customer_id": "879864dab9bc3047522c92c82e1212b8",
      "customer_unique_id": "4c93744516667ad3b8f1fb645a3116a4",
      "customer_zip_code_prefix": "89254",
      "customer_city": "jaragua do sul",
      "customer_state": "SC"
    },
    {
      "customer_id": "fd826e7cf63160e536e0908c76c3f441",
      "customer_unique_id": "addec96d2e059c80c30fe6871d30d177",
      "customer_zip_code_prefix": "4534",
      "customer_city": "sao paulo",
      "customer_state": "SP"
    },
    {
      "customer_id": "5e274e7a0c3809e14aba7ad5aae0d407",
      "customer_unique_id": "57b2a98a409812fe9618067b6b8ebe4f",
      "customer_zip_code_prefix": "35182",
      "customer_city": "timoteo",
      "customer_state": "MG"
    },
    {
      "customer_id": "5adf08e34b2e993982a47070956c5c65",
      "customer_unique_id": "1175e95fb47ddff9de6b2b06188f7e0d",
      "customer_zip_code_prefix": "81560",
      "customer_city": "curitiba",
      "customer_state": "PR"
    },
    {
      "customer_id": "4b7139f34592b3a31687243a302fa75b",
      "customer_unique_id": "9afe194fb833f79e300e37e580171f22",
      "customer_zip_code_prefix": "30575",
      "customer_city": "belo horizonte",
      "customer_state": "MG"
    },
    {
      "customer_id": "9fb35e4ed6f0a14a4977cd9aea4042bb",
      "customer_unique_id": "2a7745e1ed516b289ed9b29c7d0539a5",
      "customer_zip_code_prefix": "39400",
      "customer_city": "montes claros",
      "customer_state": "MG"
    },
    {
      "customer_id": "5aa9e4fdd4dfd20959cad2d772509598",
      "customer_unique_id": "2a46fb94aef5cbeeb850418118cee090",
      "customer_zip_code_prefix": "20231",
      "customer_city": "rio de janeiro",
      "customer_state": "RJ"
    },
    {
      "customer_id": "b2d1536598b73a9abd18e0d75d92f0a3",
      "customer_unique_id": "918dc87cd72cd9f6ed4bd442ed785235",
      "customer_zip_code_prefix": "18682",
      "customer_city": "",
      "customer_state": "SP"
    },
    {
      "customer_id": "eabebad39a88bb6f5b52376faec28612",
      "customer_unique_id": "295c05e81917928d76245e842748184d",
      "customer_zip_code_prefix": "5704",
      "customer_city": "sao paulo",
      "customer_state": "SP"
    },
    {
      "customer_id": "1f1c7bf1c9b041b292af6c1c4470b753",
      "customer_unique_id": "3151a81801c8386361b62277d7fa5ecf",
      "customer_zip_code_prefix": "95110",
      "customer_city": "caxias do sul",
      "customer_state": "Rio Grande do Sul"
    },
    {
      "customer_id": "206f3129c0e4d7d0b9550426023f0a08",
      "customer_unique_id": "21f748a16f4e1688a9014eb3ee6fa325",
      "customer_zip_code_prefix": "13412",
      "customer_city": "piracicaba",
      "customer_state": "SP"
    },
    {
      "customer_id": "a7c125a0a07b75146167b7f04a7f8e98",
      "customer_unique_id": "5c2991dbd08bbf3cf410713c4de5a0b5",
      "customer_zip_code_prefix": "22750",
      "customer_city": "rio de janeiro",
      "customer_state": "RJ"
    },
    {
      "customer_id": "c5c61596a3b6bd0cee5766992c48a9a1",
      "customer_unique_id": "b6e99561fe6f34a55b0b7da92f8ed775",
      "customer_zip_code_prefix": "7124",
      "customer_city": "",
      "customer_state": "SP"
    },
    {
      "customer_id": "9b8ce803689b3562defaad4613ef426f",
      "customer_unique_id": "7f3a72e8f988c6e735ba118d54f47458",
      "customer_zip_code_prefix": "5416",
      "customer_city": "sao paulo",
      "customer_state": "SP"
    },
    {
      "customer_id": "49d0ea0986edde72da777f15456a0ee0",
      "customer_unique_id": "3e6fd6b2f0d499456a6a6820a40f2d79",
      "customer_zip_code_prefix": "68485",
      "customer_city": "pacaja",
      "customer_state": "PA"
    },
    {
      "customer_id": "154c4ded6991bdfa3cd249d11abf4130",
      "customer_unique_id": "e607ede0e63436308660236f5a52da5e",
      "customer_zip_code_prefix": "88034",
      "customer_city": "florianopolis",
      "customer_state": "SC"
    },
    {
      "customer_id": "690172ab319622688d3b4df42f676898",
      "customer_unique_id": "a96d5cfa0d3181817e2b946f921ea021",
      "customer_zip_code_prefix": "74914",
      "customer_city": "aparecida de goiania",
      "customer_state": "GO"
    },
    {
      "customer_id": "2938121a40a20953c43caa8c98787fcb",
      "customer_unique_id": "482441ea6a06b1f72fe9784756c0ea75",
      "customer_zip_code_prefix": "5713",
      "customer_city": "sao paulo",
      "customer_state": "SP"
    },
    {
      "customer_id": "237098a64674ae89babdc426746260fc",
      "customer_unique_id": "4390ddbb6276a66ff1736a6710205dca",
      "customer_zip_code_prefix": "82820",
      "customer_city": "curitiba",
      "customer_state": "PR"
    },
    {
      "customer_id": "cb721d7b4f271fd87011c4c83462c076",
      "customer_unique_id": "a5844ba4bfc8d0cc61d13027c7e63bcc",
      "customer_zip_code_prefix": "8225",
      "customer_city": "sao paulo",
      "customer_state": "São Paulo"
    },
    {
      "customer_id": "f681356046d9fde60e70c73a18d65ea2",
      "customer_unique_id": "5f102dd37243f152aec3607970aad100",
      "customer_zip_code_prefix": "9121",
      "customer_city": "",
      "customer_state": "SP"
    },
    {
      "customer_id": "167bd30a409e3e4127df5a9408ebd394",
      "customer_unique_id": "9c0096673baf55453a50073f12d1a37f",
      "customer_zip_code_prefix": "74310",
      "customer_city": "goiania",
      "customer_state": "GO"
    },
    {
      "customer_id": "6e359a57a91f84095cc64e1b351aef8c",
      "customer_unique_id": "2e6a42a9b5cbb0da62988694f18ee295",
      "customer_zip_code_prefix": "4571",
      "customer_city": "",
      "customer_state": "SP"
    },
    {
      "customer_id": "e0eea8f69a457b3f1fa246e44c9ebefd",
      "customer_unique_id": "4d221875624017bc47b4d1ce7314a5b7",
      "customer_zip_code_prefix": "29311",
      "customer_city": "cachoeiro de itapemirim",
      "customer_state": "ES"
    },
    {
      "customer_id": "e3109970a3fe8021d5ff82c577ce5606",
      "customer_unique_id": "a8654e2af5da6bb72f52c22b164855e1",
      "customer_zip_code_prefix": "5528",
      "customer_city": "sao paulo",
      "customer_state": "SP"
    },
    {
      "customer_id": "261cb4f92498ca05d5bd1a327a261d9c",
      "customer_unique_id": "424aca6872c5bab80780a8dec03b7516",
      "customer_zip_code_prefix": "12235",
      "customer_city": "sao jose dos campos",
      "customer_state": "SP"
    },
    {
      "customer_id": "6f92779347724b67e44e3224f3b4cffd",
      "customer_unique_id": "bf4862777db128507e9efcc789215e9b",
      "customer_zip_code_prefix": "18130",
      "customer_city": "sao roque",
      "customer_state": "SP"
    },
    {
      "customer_id": "2d5831cb2dff7cdefba62e950ae3dc7b",
      "customer_unique_id": "e9dd12dca17352644a959d9dea133935",
      "customer_zip_code_prefix": "42800",
      "customer_city": "camacari",
      "customer_state": "BA"
    },
    {
      "customer_id": "b2bed119388167a954382cca36c4777f",
      "customer_unique_id": "e079b18794454de9d2be5c12b4392294",
      "customer_zip_code_prefix": "27525",
      "customer_city": "",
      "customer_state": "RJ"
    },
    {
      "customer_id": "469634941c27cd844170935a3cf60b95",
      "customer_unique_id": "ef07ba9aa5226f77264ffa5762b2280b",
      "customer_zip_code_prefix": "81750",
      "customer_city": "curitiba",
      "customer_state": "PR"
    },
    {
      "customer_id": "df0aa5b8586495e0ddf6b601122e43a1",
      "customer_unique_id": "85d234692f7bee8d6fea586e237334b6",
      "customer_zip_code_prefix": "13175",
      "customer_city": "sumare",
      "customer_state": "SP"
    },
    {
      "customer_id": "41c8f4b570869791379a925899a6af8a",
      "customer_unique_id": "fe3634ccefbcdb0537b45fd589e32e8e",
      "customer_zip_code_prefix": "7170",
      "customer_city": "guarulhos",
      "customer_state": "SP"
    },
    {
      "customer_id": "54f755c3fd2709231f9964a1430c5218",
      "customer_unique_id": "40febde16f4718a5def537786473b0be",
      "customer_zip_code_prefix": "93415",
      "customer_city": "novo hamburgo",
      "customer_state": "RS"
    },
    {
      "customer_id": "4c06b42fbf7b97ab10779cda5549cd1c",
      "customer_unique_id": "07d190f123147d9e89d4b922543d7948",
      "customer_zip_code_prefix": "65075",
      "customer_city": "",
      "customer_state": "MA"
    },
    {
      "customer_id": "b6368ca0f56d4632f44d58ca431487b2",
      "customer_unique_id": "dd992305cba295d997f263dbdf4e8c2e",
      "customer_zip_code_prefix": "88104",
      "customer_city": "sao jose",
      "customer_state": "SC"
    },
    {
      "customer_id": "4a0e66fd30684aa1409cd1b66fec77cc",
      "customer_unique_id": "86085586aaa8c5f47ed0b400da64c59d",
      "customer_zip_code_prefix": "7176",
      "customer_city": "guarulhos",
      "customer_state": "SP"
    },
    {
      "customer_id": "c168abb9077b7821adae01dc1f0886c5",
      "customer_unique_id": "5ad58a4e6a1a656b6bed070cadbaa003",
      "customer_zip_code_prefix": "35960",
      "customer_city": "santa barbara",
      "customer_state": "MG"
    },
    {
      "customer_id": "a3b0fda37bae14cf754877bed475e80c",
      "customer_unique_id": "c9158d089637ab443c78984d20da7fc0",
      "customer_zip_code_prefix": "5727",
      "customer_city": "sao paulo",
      "customer_state": "SP"
    },
    {
      "customer_id": "0ccd415657ae8a6cd1c71b00155a019e",
      "customer_unique_id": "66cc90195ca44cc7ac6a1cd0e1e1e7b2",
      "customer_zip_code_prefix": "7053",
      "customer_city": "guarulhos",
      "customer_state": "São Paulo"
    },
    {
      "customer_id": "c532a74a3ebf1bacce2e2bcce3783317",
      "customer_unique_id": "91ec50a00ae74d0a229d2efdf4344e1e",
      "customer_zip_code_prefix": "14026",
      "customer_city": "",
      "customer_state": "SP"
    },
    {
      "customer_id": "19cecb194f54e614b70d971306a9931b",
      "customer_unique_id": "d251c190ca75786e9ab937982d60d1d4",
      "customer_zip_code_prefix": "30320",
      "customer_city": "belo horizonte",
      "customer_state": "MG"
    },
    {
      "customer_id": "f34a6e874087ec1f0e3dab9fdf659c5d",
      "customer_unique_id": "233896de79986082f1f479f1f85281cb",
      "customer_zip_code_prefix": "38300",
      "customer_city": "ituiutaba",
      "customer_state": "MG"
    },
    {
      "customer_id": "c132855c926907970dcf6f2bf0b33a24",
      "customer_unique_id": "a8ae36a2bb6c2bbc3b5d62ede131c9ef",
      "customer_zip_code_prefix": "18740",
      "customer_city": "taquarituba",
      "customer_state": "SP"
    },
    {
      "customer_id": "df85b96ba2ce3e49bde101b1614f52ac",
      "customer_unique_id": "8d46223c91cbeb93e0930ca8bd8ffca2",
      "customer_zip_code_prefix": "83085",
      "customer_city": "sao jose dos pinhais",
      "customer_state": "PR"
    },
    {
      "customer_id": "4d27341acd30a36bca39008ee9bb9050",
      "customer_unique_id": "e021e698833bdeb89dfef3acb2e91f37",
      "customer_zip_code_prefix": "89254",
      "customer_city": "jaragua do sul",
      "customer_state": "SC"
    },
    {
      "customer_id": "d3b6830d18c7de943d1e707d1f061d40",
      "customer_unique_id": "27cf4b153010911a0957150255a6c6db",
      "customer_zip_code_prefix": "5351",
      "customer_city": "sao paulo",
      "customer_state": "São Paulo"
    },
    {
      "customer_id": "79de53946db384e2d7a9bd131792ad17",
      "customer_unique_id": "7ce5b57a120a2da6a804afa58ffcbfb5",
      "customer_zip_code_prefix": "39406",
      "customer_city": "montes claros",
      "customer_state": "Minas Gerais"
    },
    {
      "customer_id": "a562ab1e728449e3461829dfe2e36f73",
      "customer_unique_id": "d33eeadf54cb883e79be640f38c32cdc",
      "customer_zip_code_prefix": "14860",
      "customer_city": "",
      "customer_state": "SP"
    },
    {
      "customer_id": "b64ed91eab98972150bdaf77ca921934",
      "customer_unique_id": "3da7750bf3c1dbd724624a60a9f5942b",
      "customer_zip_code_prefix": "21310",
      "customer_city": "rio de janeiro",
      "customer_state": "RJ"
    },
    {
      "customer_id": "8247b5583327ab8be19f96e1fb82f77b",
      "customer_unique_id": "d85547cd859833520b311b4458a14c1c",
      "customer_zip_code_prefix": "23970",
      "customer_city": "parati",
      "customer_state": "RJ"
    },
    {
      "customer_id": "8fcaa9368903f3a9a28aeaff28c14638",
      "customer_unique_id": "3af0b2f7654f613ff1527b997a2ac57e",
      "customer_zip_code_prefix": "79804",
      "customer_city": "",
      "customer_state": "MS"
    },
    {
      "customer_id": "a9b0d1c26105279e1b8edc63d06bd668",
      "customer_unique_id": "3d49f4455a3947c8dd7e972b3ad8cb76",
      "customer_zip_code_prefix": "5017",
      "customer_city": "",
      "customer_state": "SP"
    },
    {
      "customer_id": "aa9f03ecd3728c9bd12e6d962c66c7cb",
      "customer_unique_id": "b03e9d9818ee170e9d6b983803c7d406",
      "customer_zip_code_prefix": "75388",
      "customer_city": "trindade",
      "customer_state": "GO"
    },
    {
      "customer_id": "230c0d740401730c7197d16376893525",
      "customer_unique_id": "a302a693d5722d95984e6472150b9391",
      "customer_zip_code_prefix": "85808",
      "customer_city": "",
      "customer_state": "PR"
    },
    {
      "customer_id": "a905baa530258422594f1b05615bd225",
      "customer_unique_id": "c80da60feddb7cf8325bd104032e314a",
      "customer_zip_code_prefix": "60140",
      "customer_city": "fortaleza",
      "customer_state": "CE"
    },
    {
      "customer_id": "4fa19f7da692e6bf9602aaad3c372eda",
      "customer_unique_id": "a2b8841410cf77619574d311cd06fd5e",
      "customer_zip_code_prefix": "72270",
      "customer_city": "brasilia",
      "customer_state": "DF"
    },
    {
      "customer_id": "03f846ad03437d864a8d2a22976dcafe",
      "customer_unique_id": "7677c213007e9a6ec9267ea50b5ce5bc",
      "customer_zip_code_prefix": "2075",
      "customer_city": "sao paulo",
      "customer_state": "SP"
    },
    {
      "customer_id": "de4e13fd7d6469c5ada77d0843c55e42",
      "customer_unique_id": "0c17f9ac28cbd7323f0f4043e9db5907",
      "customer_zip_code_prefix": "96015",
      "customer_city": "pelotas",
      "customer_state": "RS"
    },
    {
      "customer_id": "8276de07ef25225d412b8462d73f8664",
      "customer_unique_id": "332cf4e83e16004ba7dca932ce82475b",
      "customer_zip_code_prefix": "90010",
      "customer_city": "porto alegre",
      "customer_state": "RS"
    },
    {
      "customer_id": "cc32707d2e2f7c92ab449f9b28154809",
      "customer_unique_id": "0d516ca029d6a28d5cfddd80b27a26dc",
      "customer_zip_code_prefix": "22440",
      "customer_city": "rio de janeiro",
      "customer_state": "RJ"
    },
    {
      "customer_id": "a02f66c3af7b16eec19ddcd98b645fe3",
      "customer_unique_id": "b3548d0cec408ae13d143bb4eeebaa6c",
      "customer_zip_code_prefix": "13323",
      "customer_city": "salto",
      "customer_state": "SP"
    },
    {
      "customer_id": "26acee41e2f75689a5615892f06ea0bd",
      "customer_unique_id": "c3293e875ffb1116018edf76d24e52a2",
      "customer_zip_code_prefix": "30190",
      "customer_city": "belo horizonte",
      "customer_state": "MG"
    },
    {
      "customer_id": "f64cdee66599119324ce57a97e43700d",
      "customer_unique_id": "d89e05e2d23c3d8247aeecd07758004b",
      "customer_zip_code_prefix": "13212",
      "customer_city": "jundiai",
      "customer_state": "São Paulo"
    },
    {
      "customer_id": "7ab7a537b678b6dd73d825ff6ee7be9d",
      "customer_unique_id": "dad5018ffc0de85eb72f72575b552784",
      "customer_zip_code_prefix": "29307",
      "customer_city": "cachoeiro de itapemirim",
      "customer_state": "ES"
    },
    {
      "customer_id": "7300450cedf7e4c35c243c4a03c1e8a6",
      "customer_unique_id": "95700615deef776ed32faa08f0be634e",
      "customer_zip_code_prefix": "12280",
      "customer_city": "cacapava",
      "customer_state": "São Paulo"
    },
    {
      "customer_id": "4c7241af24b5344cb01fe687643de4fe",
      "customer_unique_id": "b157c176c3fe04914fde33f2dc8b878a",
      "customer_zip_code_prefix": "60336",
      "customer_city": "fortaleza",
      "customer_state": "CE"
    },
    {
      "customer_id": "97e126f19a6f04b3462619f36862bcd2",
      "customer_unique_id": "d4397835ae287e492b186d497099439a",
      "customer_zip_code_prefix": "11310",
      "customer_city": "sao vicente",
      "customer_state": "SP"
    },
    {
      "customer_id": "6d27a9361e591da38c87a5e70253f3f2",
      "customer_unique_id": "76b029c87118a29f2e3de420f5ec2fa2",
      "customer_zip_code_prefix": "38408",
      "customer_city": "uberlandia",
      "customer_state": "MG"
    },
    {
      "customer_id": "6810c3dc47f641181fcc7f73275c3d19",
      "customer_unique_id": "7eaa86786b5955ab188db287f4726d79",
      "customer_zip_code_prefix": "37720",
      "customer_city": "botelhos",
      "customer_state": "MG"
    },
    {
      "customer_id": "b514422efcf14bef34858a0829bef189",
      "customer_unique_id": "b436a108536c1dabbc1d3e808d782df9",
      "customer_zip_code_prefix": "24431",
      "customer_city": "sao goncalo",
      "customer_state": "RJ"
    },
    {
      "customer_id": "0aae2862f8eac77f10a34f44860720ac",
      "customer_unique_id": "cd076285a12f40041b32f5ad8c98699f",
      "customer_zip_code_prefix": "5890",
      "customer_city": "sao paulo",
      "customer_state": "SP"
    },
    {
      "customer_id": "6c9a5923526346cbc0bd7bbd92269c01",
      "customer_unique_id": "cf6d4152d758efc43910e0141ae5b912",
      "customer_zip_code_prefix": "3733",
      "customer_city": "sao paulo",
      "customer_state": "São Paulo"
    },
    {
      "customer_id": "1b2cb35b19b40b61f953d32ea157b337",
      "customer_unique_id": "468d559ef2dcd2bea6d8db78959fb90f",
      "customer_zip_code_prefix": "83709",
      "customer_city": "araucaria",
      "customer_state": "PR"
    },
    {
      "customer_id": "12d1b4294fef21016c9614eb31e55e15",
      "customer_unique_id": "7556f182460418cf30957e6ce377c674",
      "customer_zip_code_prefix": "11347",
      "customer_city": "sao vicente",
      "customer_state": "São Paulo"
    },
    {
      "customer_id": "f6529ffebe6b3440d45d89604a4239ac",
      "customer_unique_id": "e5dbefdfdf3eff75c8e6cd655f128279",
      "customer_zip_code_prefix": "26272",
      "customer_city": "",
      "customer_state": "RJ"
    },
    {
      "customer_id": "8264e3518163dd09211870b24a5d741d",
      "customer_unique_id": "67d21c8bea9d6017d1b124d3879dd815",
      "customer_zip_code_prefix": "5415",
      "customer_city": "sao paulo",
      "customer_state": "São Paulo"
    },
    {
      "customer_id": "8392e3d4cfeec63f2a8bfea68bf1f91f",
      "customer_unique_id": "fd2d5fdb84e65fa6b54b98b0e2df5645",
      "customer_zip_code_prefix": "59655",
      "customer_city": "",
      "customer_state": "RN"
    },
    {
      "customer_id": "38d1cd89306128348ffdf4cc23f3a50a",
      "customer_unique_id": "d491a65a6ef3c04e145d37395996bad7",
      "customer_zip_code_prefix": "4548",
      "customer_city": "",
      "customer_state": "São Paulo"
    },
    {
      "customer_id": "91ec76836092bba85d11761078ed7bb5",
      "customer_unique_id": "6edd17d0a29e2d4057e694afee5eaa3b",
      "customer_zip_code_prefix": "28010",
      "customer_city": "campos dos goytacazes",
      "customer_state": "RJ"
    },
    {
      "customer_id": "f9dfa0a2934ffbb22e66924952548be8",
      "customer_unique_id": "bf6e263ffc1f89999827615522b0aa45",
      "customer_zip_code_prefix": "13573",
      "customer_city": "",
      "customer_state": "SP"
    },
    {
      "customer_id": "5a3260cfde2a918b597dada7ddd247bb",
      "customer_unique_id": "6d3f61e35d0422fd8cae65b1798784be",
      "customer_zip_code_prefix": "2175",
      "customer_city": "sao paulo",
      "customer_state": "SP"
    },
    {
      "customer_id": "ee3a81b2771fec5f9e982cdb1b3a4804",
      "customer_unique_id": "a9a77b4e25980b7ca58cb71f878abb27",
      "customer_zip_code_prefix": "37500",
      "customer_city": "itajuba",
      "customer_state": "MG"
    },
    {
      "customer_id": "784c407781aa34749a388c9283782b56",
      "customer_unique_id": "eca666aec08df69fe31aa9a11d4a3302",
      "customer_zip_code_prefix": "90670",
      "customer_city": "porto alegre",
      "customer_state": "RS"
    },
    {
      "customer_id": "3f6ede29d4c69cd3316d2035b6cec1fb",
      "customer_unique_id": "7a380cb5434e6b6b5b37d45bb99dbe8a",
      "customer_zip_code_prefix": "9890",
      "customer_city": "sao bernardo do campo",
      "customer_state": "SP"
    },
    {
      "customer_id": "6bed27564bd99d78d09c1fac13da56fd",
      "customer_unique_id": "463093247faa080167d77f2e6d1b297d",
      "customer_zip_code_prefix": "13321",
      "customer_city": "salto",
      "customer_state": "SP"
    },
    {
      "customer_id": "670254dd2e886ffe621b3831afb47d7d",
      "customer_unique_id": "914b142462685e3161cf3a9f4152a028",
      "customer_zip_code_prefix": "44380",
      "customer_city": "cruz das almas",
      "customer_state": "BA"
    },
    {
      "customer_id": "f7cb015ff73be957ee6a30e2577742c5",
      "customer_unique_id": "e235442a956c524e6c141141171f5801",
      "customer_zip_code_prefix": "27700",
      "customer_city": "vassouras",
      "customer_state": "RJ"
    },
    {
      "customer_id": "ea2196dc456ba36fe4f6b81dca4867d4",
      "customer_unique_id": "4a4de987b37555970ffcc9608d858a72",
      "customer_zip_code_prefix": "44033",
      "customer_city": "",
      "customer_state": "Bahia"
    },
    {
      "customer_id": "09241c552e9fe2420997a6c535e9d408",
      "customer_unique_id": "44e9a1246448bd68a2e3bf0f1966c57a",
      "customer_zip_code_prefix": "4537",
      "customer_city": "sao paulo",
      "customer_state": "SP"
    },
    {
      "customer_id": "e50a30de3c32f9406a7185f40ce6874d",
      "customer_unique_id": "b4d6e1b900d99b52e901860bc1f44e35",
      "customer_zip_code_prefix": "71540",
      "customer_city": "brasilia",
      "customer_state": "DF"
    },
    {
      "customer_id": "f89c1a6b9c966869e441e55bc14acddc",
      "customer_unique_id": "809353196a0456095716566dd226bb48",
      "customer_zip_code_prefix": "13569",
      "customer_city": "",
      "customer_state": "SP"
    },
    {
      "customer_id": "23e96758fd640560e9b1fbcda90abfc4",
      "customer_unique_id": "9e1f719fe5b17b9c51905fee6d6385c1",
      "customer_zip_code_prefix": "5565",
      "customer_city": "sao paulo",
      "customer_state": "São Paulo"
    },
    {
      "customer_id": "369708cabd9831ea6fde670a3b602a92",
      "customer_unique_id": "94b731a41867b47c3856e324840c4c99",
      "customer_zip_code_prefix": "3636",
      "customer_city": "sao paulo",
      "customer_state": "SP"
    },
    {
      "customer_id": "5f8b4882b5a4ec7bf6d2107e6cd0cf29",
      "customer_unique_id": "694cb45ff29b603ac2acd51016770097",
      "customer_zip_code_prefix": "24120",
      "customer_city": "niteroi",
      "customer_state": "RJ"
    },
    {
      "customer_id": "ad6891a1937cb8723a2c08ba1ae59873",
      "customer_unique_id": "9dbb05f5577e862337b93feb8f358839",
      "customer_zip_code_prefix": "65058",
      "customer_city": "sao luis",
      "customer_state": "MA"
    }
  ],
  "total": 99441,
  "limit": 100,
  "offset": 0,
  "has_next": true
}