{
  "data": [
    {
      "order_id": "00010242fe8c5a6d1ba2dd792cb16214",
      "payment_sequential": "1",
      "payment_type": " credit card ",
      "payment_installments": "2",
      "payment_value": "72.19"
    },
    {
      "order_id": "00018f77f2f0320c557190d7a144bdd3",
      "payment_sequential": "1",
      "payment_type": " credit card ",
      "payment_installments": "3",
      "payment_value": "259.83"
    },
    {
      "order_id": "000229ec398224ef6ca0657da4fc703e",
      "payment_sequential": "1",
      "payment_type": "credit_card",
      "payment_installments": "5",
      "payment_value": "216.87"
    },
    {
      "order_id": "00024acbcdf0a6daa1e931b038114c75",
      "payment_sequential": "1",
      "payment_type": "Y3JlZGl0X2NhcmQ=",
      "payment_installments": "2",
      "payment_value": "25.78"
    },
    {
      "order_id": "00042b26cf59d7ce69dfabb4e55b4fd9",
      "payment_sequential": "1",
      "payment_type": " credit card ",
      "payment_installments": "3",
      "payment_value": "218.04"
    },
    {
      "order_id": "00048cc3ae777c65dbb7d2a0634bc1ea",
      "payment_sequential": "1",
      "payment_type": "boleto",
      "payment_installments": "1",
      "payment_value": "34.59"
    },
    {
      "order_id": "00054e8431b9d7675808bcb819fb4a32",
      "payment_sequential": "1",
      "payment_type": " credit card ",
      "payment_installments": "1",
      "payment_value": "31.75"
    },
    {
      "order_id": "000576fe39319847cbb9d288c5617fa6",
      "payment_sequential": "1",
      "payment_type": " credit card ",
      "payment_installments": "10",
      "payment_value": "880.75"
    },
    {
      "order_id": "0005a1a1728c9d785b8e2b08b904576c",
      "payment_sequential": "1",
      "payment_type": " credit card ",
      "payment_installments": "3",
      "payment_value": "157.6"
    },
    {
      "order_id": "0005f50442cb953dcd1d21e1fb923495",
      "payment_sequential": "1",
      "payment_type": " credit card ",
      "payment_installments": "1",
      "payment_value": "65.39"
    },
    {
      "order_id": "00061f2a7bc09da83e415a52dc8a4af1",
      "payment_sequential": "1",
      "payment_type": " credit card ",
      "payment_installments": "3",
      "payment_value": "68.87"
    },
    {
      "order_id": "00063b381e2406b52ad429470734ebd5",
      "payment_sequential": "1",
      "payment_type": " credit card ",
      "payment_installments": "5",
      "payment_value": "57.98"
    },
    {
      "order_id": "0006ec9db01a64e59a68b2c340bf65a7",
      "payment_sequential": "1",
      "payment_type": " credit card ",
      "payment_installments": "4",
      "payment_value": "97.32"
    },
    {
      "order_id": "0008288aa423d2a3f00fcb17cd7d8719",
      "payment_sequential": "1",
      "payment_type": " boleto ",
      "payment_installments": "1",
      "payment_value": "126.54"
    },
    {
      "order_id": "0009792311464db532ff765bf7b182ae",
      "payment_sequential": "1",
      "payment_type": " boleto ",
      "payment_installments": "1",
      "payment_value": "127.55"
    },
    {
      "order_id": "0009c9a17f916a706d71784483a5d643",
      "payment_sequential": "1",
      "payment_type": " credit card ",
      "payment_installments": "6",
      "payment_value": "650.34"
    },
    {
      "order_id": "000aed2e25dbad2f9ddb70584c5a2ded",
      "payment_sequential": "1",
      "payment_type": " credit card ",
      "payment_installments": "1",
      "payment_value": "152.77"
    },
    {
      "order_id": "000c3e6612759851cc3cbb4b83257986",
      "payment_sequential": "1",
      "payment_type": " boleto ",
      "payment_installments": "1",
      "payment_value": "112.71"
    },
    {
      "order_id": "000e562887b1f2006d75e0be9558292e",
      "payment_sequential": "1",
      "payment_type": " credit card ",
      "payment_installments": "4",
      "payment_value": "41.11"
    },
    {
      "order_id": "000e63d38ae8c00bbcb5a30573b99628",
      "payment_sequential": "1",
      "payment_type": " credit card ",
      "payment_installments": "1",
      "payment_value": "56.78"
    },
    {
      "order_id": "000e906b789b55f64edcb1f84030f90d",
      "payment_sequential": "1",
      "payment_type": "Y3JlZGl0X2NhcmQ=",
      "payment_installments": "3",
      "payment_value": "33.84"
    },
    {
      "order_id": "000f25f4d72195062c040b12dce9a18a",
      "payment_sequential": "1",
      "payment_type": " credit card ",
      "payment_installments": "1",
      "payment_value": "164.39"
    },
    {
      "order_id": "001021efaa8636c29475e7734483457d",
      "payment_sequential": "1",
      "payment_type": "Y3JlZGl0X2NhcmQ=",
      "payment_installments": "3",
      "payment_value": "64.1"
    },
    {
      "order_id": "0010b2e5201cc5f1ae7e9c6cc8f5bd00",
      "payment_sequential": "1",
      "payment_type": " credit card ",
      "payment_installments": "3",
      "payment_value": "65.5"
    },
    {
      "order_id": "0010dedd556712d7bb69a19cb7bbd37a",
      "payment_sequential": "1",
      "payment_type": "Ym9sZXRv",
      "payment_installments": "1",
      "payment_value": "111.12"
    },
    {
      "order_id": "00119ff934e539cf26f92b9ef0cdfed8",
      "payment_sequential": "1",
      "payment_type": " credit card ",
      "payment_installments": "6",
      "payment_value": "236.88"
    },
    {
      "order_id": "0011d82c4b53e22e84023405fb467e57",
      "payment_sequential": "1",
      "payment_type": " credit card ",
      "payment_installments": "2",
      "payment_value": "315.33"
    },
    {
      "order_id": "00125cb692d04887809806618a2a145f",
      "payment_sequential": "1",
      "payment_type": " credit card ",
      "payment_installments": "1",
      "payment_value": "135.41"
    },
    {
      "order_id": "00130c0eee84a3d909e75bc08c5c3ca1",
      "payment_sequential": "1",
      "payment_type": " boleto ",
      "payment_installments": "1",
      "payment_value": "35.84"
    },
    {
      "order_id": "0013503b13da1eac686219390b7d641b",
      "payment_sequential": "1",
      "payment_type": " boleto ",
      "payment_installments": "1",
      "payment_value": "137.22"
    },
    {
      "order_id": "00137e170939bba5a3134e2386413108",
      "payment_sequential": "1",
      "payment_type": "boleto",
      "payment_installments": "1",
      "payment_value": "421.65"
    },
    {
      "order_id": "001427c0ec99cf8af737bd88e92fd444",
      "payment_sequential": "1",
      "payment_type": "credit_card",
      "payment_installments": "1",
      "payment_value": "83.25"
    },
    {
      "order_id": "00143d0f86d6fbd9f9b38ab440ac16f5",
      "payment_sequential": "1",
      "payment_type": "credit_card",
      "payment_installments": "1",
      "payment_value": "109.29"
    },
    {
      "order_id": "0014ae671de39511f7575066200733b7",
      "payment_sequential": "1",
      "payment_type": " boleto ",
      "payment_installments": "1",
      "payment_value": "30.6"
    },
    {
      "order_id": "0015ebb40fb17286bea51d4607c4733c",
      "payment_sequential": "1",
      "payment_type": " credit card ",
      "payment_installments": "1",
      "payment_value": "37.0"
    },
    {
      "order_id": "00169e31ef4b29deaae414f9a5e95929",
      "payment_sequential": "1",
      "payment_type": "Ym9sZXRv",
      "payment_installments": "1",
      "payment_value": "55.11"
    },
    {
      "order_id": "0016dfedd97fc2950e388d2971d718c7",
      "payment_sequential": "1",
      "payment_type": "Y3JlZGl0X2NhcmQ=",
      "payment_installments": "5",
      "payment_value": "52.63"
    },
    {
      "order_id": "0016dfedd97fc2950e388d2971d718c7",
      "payment_sequential": "2",
      "payment_type": " voucher ",
      "payment_installments": "1",
      "payment_value": "17.92"
    },
    {
      "order_id": "0017afd5076e074a48f1f1a4c7bac9c5",
      "payment_sequential": "1",
      "payment_type": "credit_card",
      "payment_installments": "10",
      "payment_value": "853.39"
    },
    {
      "order_id": "001862358bf858722e1e2ae000cfed8b",
      "payment_sequential": "1",
      "payment_type": "credit_card",
      "payment_installments": "2",
      "payment_value": "113.71"
    },
    {
      "order_id": "0019c29108428acffd089c36103c9440",
      "payment_sequential": "1",
      "payment_type": " credit card ",
      "payment_installments": "7",
      "payment_value": "79.85"
    },
    {
      "order_id": "001ab0a7578dd66cd4b0a71f5b6e1e41",
      "payment_sequential": "1",
      "payment_type": " boleto ",
      "payment_installments": "1",
      "payment_value": "127.56"
    },
    {
      "order_id": "001ac194d4a326a6fa99b581e9a3d963",
      "payment_sequential": "1",
      "payment_type": "Ym9sZXRv",
      "payment_installments": "1",
      "payment_value": "62.54"
    },
    {
      "order_id": "001b76dd48a5b1eee3e87778daa40df8",
      "payment_sequential": "1",
      "payment_type": " credit card ",
      "payment_installments": "3",
      "payment_value": "95.0"
    },
    {
      "order_id": "001c85b5f68d2be0cb0797afc9e8ce9a",
      "payment_sequential": "1",
      "payment_type": " credit card ",
      "payment_installments": "4",
      "payment_value": "112.71"
    },
    {
      "order_id": "001d8f0e34a38c37f7dba2a37d4eba8b",
      "payment_sequential": "1",
      "payment_type": " credit card ",
      "payment_installments": "2",
      "payment_value": "53.54"
    },
    {
      "order_id": "001daeb0eddc45b999bad0801ad9d273",
      "payment_sequential": "1",
      "payment_type": "boleto",
      "payment_installments": "1",
      "payment_value": "55.12"
    },
    {
      "order_id": "001dbc16dc51075e987543d23a0507c7",
      "payment_sequential": "1",
      "payment_type": " credit card ",
      "payment_installments": "1",
      "payment_value": "87.9"
    },
    {
      "order_id": "001e7ba991be1b19605ca0316e7130f9",
      "payment_sequential": "1",
      "payment_type": "credit_card",
      "payment_installments": "10",
      "payment_value": "213.21"
    },
    {
      "order_id": "001e7cf2ad6bef3ade12ebc56ceaf0f3",
      "payment_sequential": "1",
      "payment_type": " credit card ",
      "payment_installments": "2",
      "payment_value": "51.1"
    },
    {
      "order_id": "0020262c8a370bd5a174ea6a2a267321",
      "payment_sequential": "1",
      "payment_type": "credit_card",
      "payment_installments": "2",
      "payment_value": "100.55"
    },
    {
      "order_id": "0020a222f55eb79a372d0efee3cca688",
      "payment_sequential": "1",
      "payment_type": " credit card ",
      "payment_installments": "4",
      "payment_value": "45.09"
    },
    {
      "order_id": "002175704e8b209f61b9ad5cfd92b60e",
      "payment_sequential": "1",
      "payment_type": "Y3JlZGl0X2NhcmQ=",
      "payment_installments": "3",
      "payment_value": "123.11"
    },
    {
      "order_id": "00229e4e43f7a7e0b9dd819ad43268d3",
      "payment_sequential": "1",
      "payment_type": "credit_card",
      "payment_installments": "1",
      "payment_value": "91.39"
    },
    {
      "order_id": "0025081dcf9330f9a5052ae82c6ce396",
      "payment_sequential": "1",
      "payment_type": " credit card ",
      "payment_installments": "3",
      "payment_value": "33.18"
    },
    {
      "order_id": "00254baeb6c932b0a8aeead91fbd02b5",
      "payment_sequential": "1",
      "payment_type": " credit card ",
      "payment_installments": "2",
      "payment_value": "193.01"
    },
    {
      "order_id": "00259a44fcad3fc0474329e925d14fc3",
      "payment_sequential": "1",
      "payment_type": "credit_card",
      "payment_installments": "1",
      "payment_value": "34.09"
    },
    {
      "order_id": "0025c5d1a8ca53a240ec2634bb4492ea",
      "payment_sequential": "1",
      "payment_type": " credit card ",
      "payment_installments": "7",
      "payment_value": "419.39"
    },
    {
      "order_id": "002611a77fe03d076285fd4ca95db77c",
      "payment_sequential": "1",
      "payment_type": "boleto",
      "payment_installments": "1",
      "payment_value": "156.75"
    },
    {
      "order_id": "002691433f09002ac9ca0c4e8dbb8ead",
      "payment_sequential": "1",
      "payment_type": " credit card ",
      "payment_installments": "1",
      "payment_value": "120.43"
    },
    {
      "order_id": "0026a368634b6e6f34f33b1499773a30",
      "payment_sequential": "1",
      "payment_type": " credit card ",
      "payment_installments": "1",
      "payment_value": "164.8"
    },
    {
      "order_id": "00275bce676303c3bfd7292aefdfa223",
      "payment_sequential": "1",
      "payment_type": "Ym9sZXRv",
      "payment_installments": "1",
      "payment_value": "293.36"
    },
    {
      "order_id": "00276d5c3491fbf55305e26891040df9",
      "payment_sequential": "1",
      "payment_type": " credit card ",
      "payment_installments": "6",
      "payment_value": "68.12"
    },
    {
      "order_id": "002834535f7a609a5c68266f173fa59e",
      "payment_sequential": "1",
      "payment_type": " boleto ",
      "payment_installments": "1",
      "payment_value": "57.17"
    },
    {
      "order_id": "0028de0ca693a1bb26448916a81105cc",
      "payment_sequential": "1",
      "payment_type": " boleto ",
      "payment_installments": "1",
      "payment_value": "45.3"
    },
    {
      "order_id": "002955b0acc63d04f6724a31967e82bd",
      "payment_sequential": "1",
      "payment_type": "credit_card",
      "payment_installments": "1",
      "payment_value": "135.59"
    },
    {
      "order_id": "0029c5db35ef291ce99d1262012e7daa",
      "payment_sequential": "1",
      "payment_type": " boleto ",
      "payment_installments": "1",
      "payment_value": "514.37"
    },
    {
      "order_id": "0029f17cf0e7640c5cb6825af681303f",
      "payment_sequential": "1",
      "payment_type": " credit card ",
      "payment_installments": "1",
      "payment_value": "113.44"
    },
    {
      "order_id": "002af7fa9eb99d1456bceb6a13d6fc0b",
      "payment_sequential": "1",
      "payment_type": " credit card ",
      "payment_installments": "5",
      "payment_value": "109.45"
    },
    {
      "order_id": "002b430ff89b3a24c31a1170acbbedea",
      "payment_sequential": "1",
      "payment_type": " credit card ",
      "payment_installments": "10",
      "payment_value": "265.55"
    },
    {
      "order_id": "002b4e6fa42cd4a22cc86abc18fe9c05",
      "payment_sequential": "1",
      "payment_type": " credit card ",
      "payment_installments": "2",
      "payment_value": "119.57"
    },
    {
      "order_id": "002c9def9c9b951b1bec6d50753c9891",
      "payment_sequential": "1",
      "payment_type": "Y3JlZGl0X2NhcmQ=",
      "payment_installments": "1",
      "payment_value": "173.8"
    },
    {
      "order_id": "002d040018d12a3853c059f7f23ab5b1",
      "payment_sequential": "1",
      "payment_type": " boleto ",
      "payment_installments": "1",
      "payment_value": "169.84"
    },
    {
      "order_id": "002f16b7bc4530031b7d90f791b12d8a",
      "payment_sequential": "1",
      "payment_type": "debit_card",
      "payment_installments": "1",
      "payment_value": "284.13"
    },
    {
      "order_id": "002f19a65a2ddd70a090297872e6d64e",
      "payment_sequential": "2",
      "payment_type": " voucher ",
      "payment_installments": "1",
      "payment_value": "33.18"
    },
    {
      "order_id": "002f19a65a2ddd70a090297872e6d64e",
      "payment_sequential": "1",
      "payment_type": " voucher ",
      "payment_installments": "1",
      "payment_value": "44.11"
    },
    {
      "order_id": "002f98c0f7efd42638ed6100ca699b42",
      "payment_sequential": "1",
      "payment_type": " credit card ",
      "payment_installments": "9",
      "payment_value": "93.62"
    },
    {
      "order_id": "0030d783f979fbc5981e75613b057344",
      "payment_sequential": "1",
      "payment_type": " credit card ",
      "payment_installments": "7",
      "payment_value": "78.27"
    },
    {
      "order_id": "0030ff924c38549807645976adeef2c0",
      "payment_sequential": "1",
      "payment_type": "credit_card",
      "payment_installments": "2",
      "payment_value": "292.24"
    },
    {
      "order_id": "00310b0c75bb13015ec4d82d341865a4",
      "payment_sequential": "1",
      "payment_type": " credit card ",
      "payment_installments": "2",
      "payment_value": "55.28"
    },
    {
      "order_id": "00324b3eda39ba5ecce3945823e3594c",
      "payment_sequential": "1",
      "payment_type": "boleto",
      "payment_installments": "1",
      "payment_value": "110.07"
    },
    {
      "order_id": "0032d07457ae9c806c79368d7d9ce96b",
      "payment_sequential": "1",
      "payment_type": " credit card ",
      "payment_installments": "2",
      "payment_value": "186.19"
    },
    {
      "order_id": "003324c70b19a16798817b2b3640e721",
      "payment_sequential": "1",
      "payment_type": "Y3JlZGl0X2NhcmQ=",
      "payment_installments": "5",
      "payment_value": "234.7"
    },
    {
      "order_id": "00335b686d693c7d72deeb12f8e89227",
      "payment_sequential": "1",
      "payment_type": " boleto ",
      "payment_installments": "1",
      "payment_value": "80.79"
    },
    {
      "order_id": "00335f75ea6a4455b524a8dd177067f5",
      "payment_sequential": "1",
      "payment_type": " credit card ",
      "payment_installments": "4",
      "payment_value": "177.01"
    },
    {
      "order_id": "00337fe25a3780b3424d9ad7c5a4b35e",
      "payment_sequential": "1",
      "payment_type": " credit card ",
      "payment_installments": "1",
      "payment_value": "139.68"
    },
    {
      "order_id": "003423b755b562962a6225a8de40d12e",
      "payment_sequential": "1",
      "payment_type": " boleto ",
      "payment_installments": "1",
      "payment_value": "261.33"
    },
    {
      "order_id": "00345f338696283410b7977d2e3efc89",
      "payment_sequential": "1",
      "payment_type": "credit_card",
      "payment_installments": "1",
      "payment_value": "67.34"
    },
    {
      "order_id": "0035246a40f520710769010f752e7507",
      "payment_sequential": "1",
      "payment_type": " credit card ",
      "payment_installments": "8",
      "payment_value": "99.11"
    },
    {
      "order_id": "0035c0b07126fe9c24a325216fb96064",
      "payment_sequential": "1",
      "payment_type": " credit card ",
      "payment_installments": "10",
      "payment_value": "150.44"
    },
    {
      "order_id": "0035e6b7ade84b3f5b86bd49814793df",
      "payment_sequential": "1",
      "payment_type": "Y3JlZGl0X2NhcmQ=",
      "payment_installments": "1",
      "payment_value": "34.0"
    },
    {
      "order_id": "0036757472ece3dde52fd4bfd929c90e",
      "payment_sequential": "1",
      "payment_type": " debit card ",
      "payment_installments": "1",
      "payment_value": "203.03"
    },
    {
      "order_id": "0036887767dea4bd43b1a88cd0d9477a",
      "payment_sequential": "1",
      "payment_type": " credit card ",
      "payment_installments": "3",
      "payment_value": "423.63"
    },
    {
      "order_id": "00378c6c981f234634c0b9d6128df6dd",
      "payment_sequential": "1",
      "payment_type": "credit_card",
      "payment_installments": "2",
      "payment_value": "52.85"
    },
    {
      "order_id": "003822434f91204da0a51fe4cf2aba18",
      "payment_sequential": "1",
      "payment_type": " boleto ",
      "payment_installments": "1",
      "payment_value": "175.16"
    },
    {
      "order_id": "0039500db36d50d7d0bfaf23723550f3",
      "payment_sequential": "1",
      "payment_type": " credit card ",
      "payment_installments": "2",
      "payment_value": "203.23"
    },
    {
      "order_id": "003a7f59d7e08a9c61d9e2881fe6459c",
      "payment_sequential": "1",
      "payment_type": "credit_card",
      "payment_installments": "10",
      "payment_value": "134.28"
    },
    {
      "order_id": "003a94f778ef8cfd50247c8c1b582257",
      "payment_sequential": "1",
      "payment_type": " credit card ",
      "payment_installments": "1",
      "payment_value": "57.98"
    },
    {
      "order_id": "003cc6161d7a2593f2525cce0c330d32",
      "payment_sequential": "1",
      "payment_type": " credit card ",
      "payment_installments": "4",
      "payment_value": "97.9"
    },
    {
      "order_id": "003d0634280ff3d1d3a54459349a6899",
      "payment_sequential": "1",
      "payment_type": " credit card ",
      "payment_installments": "1",
      "payment_value": "228.89"
    }
  ],
  "total": 114274,
  "limit": 100,
  "offset": 0,
  "has_next": true
}