{
  "data": [
    {
      "seller_id": "3442f8959a84dea7ee197c632cb2df15",
      "seller_zip_code_prefix": "13023",
      "seller_city": "campinas",
      "seller_state": "SP"
    },
    {
      "seller_id": "d1b65fc7debc3361ea86b5f14c68d2e2",
      "seller_zip_code_prefix": "13844",
      "seller_city": "",
      "seller_state": "SP"
    },
    {
      "seller_id": "ce3ad9de960102d0677a81f5d0bb7b2d",
      "seller_zip_code_prefix": "20031",
      "seller_city": "",
      "seller_state": "Rio de Janeiro"
    },
    {
      "seller_id": "c0f3eea2e14555b6faeea3dd58c1b1c3",
      "seller_zip_code_prefix": "4195",
      "seller_city": "sao paulo",
      "seller_state": "São Paulo"
    },
    {
      "seller_id": "51a04a8a6bdcb23deccc82b0b80742cf",
      "seller_zip_code_prefix": "12914",
      "seller_city": "",
      "seller_state": "SP"
    },
    {
      "seller_id": "c240c4061717ac1806ae6ee72be3533b",
      "seller_zip_code_prefix": "20920",
      "seller_city": "rio de janeiro",
      "seller_state": "RJ"
    },
    {
      "seller_id": "e49c26c3edfa46d227d5121a6b6e4d37",
      "seller_zip_code_prefix": "55325",
      "seller_city": "brejao",
      "seller_state": "PE"
    },
    {
      "seller_id": "1b938a7ec6ac5061a66a3766e0e75f90",
      "seller_zip_code_prefix": "16304",
      "seller_city": "penapolis",
      "seller_state": "São Paulo"
    },
    {
      "seller_id": "768a86e36ad6aae3d03ee3c6433d61df",
      "seller_zip_code_prefix": "1529",
      "seller_city": "sao paulo",
      "seller_state": "SP"
    },
    {
      "seller_id": "ccc4bbb5f32a6ab2b7066a4130f114e3",
      "seller_zip_code_prefix": "80310",
      "seller_city": "curitiba",
      "seller_state": "Paraná"
    },
    {
      "seller_id": "8cb7c5ddf41f4d506eba76e9a4702a25",
      "seller_zip_code_prefix": "75110",
      "seller_city": "anapolis",
      "seller_state": "GO"
    },
    {
      "seller_id": "a7a9b880c49781da66651ccf4ba9ac38",
      "seller_zip_code_prefix": "13530",
      "seller_city": "itirapina",
      "seller_state": "SP"
    },
    {
      "seller_id": "8bd0f31cf0a614c658f6763bd02dea69",
      "seller_zip_code_prefix": "1222",
      "seller_city": "sao paulo",
      "seller_state": "São Paulo"
    },
    {
      "seller_id": "05a48cc8859962767935ab9087417fbb",
      "seller_zip_code_prefix": "5372",
      "seller_city": "sao paulo",
      "seller_state": "SP"
    },
    {
      "seller_id": "7b8e8ec35bad4b0ef7e3963650b0a87b",
      "seller_zip_code_prefix": "88705",
      "seller_city": "tubarao",
      "seller_state": "SC"
    },
    {
      "seller_id": "1444c08e64d55fb3c25f0f09c07ffcf2",
      "seller_zip_code_prefix": "42738",
      "seller_city": "lauro de freitas",
      "seller_state": "BA"
    },
    {
      "seller_id": "166e8f1381e09651983c38b1f6f91c11",
      "seller_zip_code_prefix": "88780",
      "seller_city": "imbituba",
      "seller_state": "SC"
    },
    {
      "seller_id": "e38db885400cd35c71dfd162f2c1dbcf",
      "seller_zip_code_prefix": "70740",
      "seller_city": "",
      "seller_state": "DF"
    },
    {
      "seller_id": "d2e753bb80b7d4faa77483ed00edc8ca",
      "seller_zip_code_prefix": "45810",
      "seller_city": "porto seguro",
      "seller_state": "BA"
    },
    {
      "seller_id": "f9ec7093df3a7b346b7bcf7864069ca3",
      "seller_zip_code_prefix": "5138",
      "seller_city": "sao paulo",
      "seller_state": "São Paulo"
    },
    {
      "seller_id": "4e6015589b781adaa5ce7f1892d06bb1",
      "seller_zip_code_prefix": "11440",
      "seller_city": "",
      "seller_state": "SP"
    },
    {
      "seller_id": "4cf490a58259286ada5ba8525ba9e84a",
      "seller_zip_code_prefix": "14910",
      "seller_city": "tabatinga",
      "seller_state": "SP"
    },
    {
      "seller_id": "f7496d659ca9fdaf323c0aae84176632",
      "seller_zip_code_prefix": "4156",
      "seller_city": "sao paulo",
      "seller_state": "SP"
    },
    {
      "seller_id": "2ff97219cb8622eaf3cd89b7d9c09824",
      "seller_zip_code_prefix": "13320",
      "seller_city": "salto",
      "seller_state": "São Paulo"
    },
    {
      "seller_id": "8bd0e3abda539b9479c4b44a691be1ec",
      "seller_zip_code_prefix": "98910",
      "seller_city": "tres de maio",
      "seller_state": "Rio Grande do Sul"
    },
    {
      "seller_id": "2a1348e9addc1af5aaa619b1a3679d6b",
      "seller_zip_code_prefix": "30494",
      "seller_city": "belo horizonte",
      "seller_state": "MG"
    },
    {
      "seller_id": "2078fe5066350e7d220c0ad3a3bbc6c1",
      "seller_zip_code_prefix": "86707",
      "seller_city": "arapongas",
      "seller_state": "PR"
    },
    {
      "seller_id": "116ccb1a1604bc88e4d234a8c23f33de",
      "seller_zip_code_prefix": "9850",
      "seller_city": "",
      "seller_state": "SP"
    },
    {
      "seller_id": "430315b7bb4b6e4b3c978f9dfa9b0558",
      "seller_zip_code_prefix": "4857",
      "seller_city": "sao paulo",
      "seller_state": "SP"
    },
    {
      "seller_id": "406822777a0b9eb5c50e442dd4cd3ec5",
      "seller_zip_code_prefix": "18500",
      "seller_city": "tatui",
      "seller_state": "São Paulo"
    },
    {
      "seller_id": "4dbd95a08b31ede5c82d3f861cb1ce1a",
      "seller_zip_code_prefix": "80210",
      "seller_city": "curitiba",
      "seller_state": "PR"
    },
    {
      "seller_id": "e9e446d01bd10a97a8ffcfc4a3a20cb2",
      "seller_zip_code_prefix": "2261",
      "seller_city": "sao paulo",
      "seller_state": "SP"
    },
    {
      "seller_id": "d52cbce9845184537284a23c3bc3da0e",
      "seller_zip_code_prefix": "88495",
      "seller_city": "garopaba",
      "seller_state": "SC"
    },
    {
      "seller_id": "d9a84e1403de8da0c3aa531d6d108ba6",
      "seller_zip_code_prefix": "3562",
      "seller_city": "sao paulo",
      "seller_state": "SP"
    },
    {
      "seller_id": "9c690ceacd5c66731bf443ea810195cb",
      "seller_zip_code_prefix": "37650",
      "seller_city": "",
      "seller_state": "MG"
    },
    {
      "seller_id": "1f9ab4708f3056ede07124aad39a2554",
      "seller_zip_code_prefix": "17602",
      "seller_city": "tupa",
      "seller_state": "São Paulo"
    },
    {
      "seller_id": "1961c3e1272bfeceb05d0b78b5bbfdaf",
      "seller_zip_code_prefix": "7241",
      "seller_city": "guarulhos",
      "seller_state": "SP"
    },
    {
      "seller_id": "d3e7d37c0df9aef383f3f2a15b0dddfb",
      "seller_zip_code_prefix": "83050",
      "seller_city": "",
      "seller_state": "PR"
    },
    {
      "seller_id": "ec2e006556300a79a5a91e4876ab3a56",
      "seller_zip_code_prefix": "3445",
      "seller_city": "sao paulo",
      "seller_state": "SP"
    },
    {
      "seller_id": "b2a6d334e2833acea353624840e25a0e",
      "seller_zip_code_prefix": "4133",
      "seller_city": "sao paulo",
      "seller_state": "SP"
    },
    {
      "seller_id": "d3674f271c91f824f82d24d92011f669",
      "seller_zip_code_prefix": "72233",
      "seller_city": "",
      "seller_state": "Distrito Federal"
    },
    {
      "seller_id": "768de2a4fc06aacecb9a586ccc30746a",
      "seller_zip_code_prefix": "70645",
      "seller_city": "brasilia",
      "seller_state": "Distrito Federal"
    },
    {
      "seller_id": "a81466620e46a6970b22ef40379fdfc9",
      "seller_zip_code_prefix": "88730",
      "seller_city": "",
      "seller_state": "SC"
    },
    {
      "seller_id": "5c030029b5916fed0986310385ec9009",
      "seller_zip_code_prefix": "88075",
      "seller_city": "sao jose",
      "seller_state": "SC"
    },
    {
      "seller_id": "c0f783394e37cd9c9d7f5f81141450fa",
      "seller_zip_code_prefix": "13416",
      "seller_city": "piracicaba",
      "seller_state": "SP"
    },
    {
      "seller_id": "c353f8fc0ce8344999f17d578eb69a5e",
      "seller_zip_code_prefix": "90850",
      "seller_city": "porto alegre",
      "seller_state": "RS"
    },
    {
      "seller_id": "8444e55c1f13cd5c179851e5ca5ebd00",
      "seller_zip_code_prefix": "37584",
      "seller_city": "",
      "seller_state": "MG"
    },
    {
      "seller_id": "28a26ebce31d5918b181ede016fd693b",
      "seller_zip_code_prefix": "31950",
      "seller_city": "belo horizonte",
      "seller_state": "MG"
    },
    {
      "seller_id": "41ab63a91b8b264e8c8780368bf1dd5b",
      "seller_zip_code_prefix": "31555",
      "seller_city": "belo horizonte",
      "seller_state": "Minas Gerais"
    },
    {
      "seller_id": "8759e7aedd644f487315e5860962f162",
      "seller_zip_code_prefix": "9251",
      "seller_city": "santo andre",
      "seller_state": "SP"
    },
    {
      "seller_id": "e546117ed9cafbc40239c0c78635c584",
      "seller_zip_code_prefix": "4705",
      "seller_city": "sao paulo",
      "seller_state": "SP"
    },
    {
      "seller_id": "d71d863e5ef30d94e440c11be17dcd8f",
      "seller_zip_code_prefix": "6144",
      "seller_city": "osasco",
      "seller_state": "SP"
    },
    {
      "seller_id": "0c7533c71df861ec58ad7ff999ed0e8d",
      "seller_zip_code_prefix": "13270",
      "seller_city": "",
      "seller_state": "SP"
    },
    {
      "seller_id": "ef990a83bbea832f36ebe81376335aa8",
      "seller_zip_code_prefix": "89214",
      "seller_city": "joinville",
      "seller_state": "SC"
    },
    {
      "seller_id": "41e0fa5761c886a630994a55c12087e7",
      "seller_zip_code_prefix": "11446",
      "seller_city": "guaruja",
      "seller_state": "SP"
    },
    {
      "seller_id": "0747d5bb69f0586cc869d8af4c50f93e",
      "seller_zip_code_prefix": "28990",
      "seller_city": "saquarema",
      "seller_state": "RJ"
    },
    {
      "seller_id": "7d294cf9a6a69dc6a0c3e540fff0e039",
      "seller_zip_code_prefix": "88390",
      "seller_city": "barra velha",
      "seller_state": "SC"
    },
    {
      "seller_id": "c89cf7c468a48af70aada384e722f9e2",
      "seller_zip_code_prefix": "25730",
      "seller_city": "petropolis",
      "seller_state": "RJ"
    },
    {
      "seller_id": "b7ba853e9551f4558440881fd3e5c815",
      "seller_zip_code_prefix": "95500",
      "seller_city": "santo antonio da patrulha",
      "seller_state": "RS"
    },
    {
      "seller_id": "13c2ed7698b3ca92dad49e849219da59",
      "seller_zip_code_prefix": "84010",
      "seller_city": "ponta grossa",
      "seller_state": "PR"
    },
    {
      "seller_id": "cbbd5ae8f53de5f5097cd8217b529e24",
      "seller_zip_code_prefix": "6544",
      "seller_city": "santana de parnaiba",
      "seller_state": "SP"
    },
    {
      "seller_id": "02ecc2a19303f05e59ce133fd923fff7",
      "seller_zip_code_prefix": "9121",
      "seller_city": "santo andre",
      "seller_state": "SP"
    },
    {
      "seller_id": "c013e57c075a06e5b5c48ee03c525719",
      "seller_zip_code_prefix": "13568",
      "seller_city": "sao carlos",
      "seller_state": "SP"
    },
    {
      "seller_id": "55f7a3319d80f7fdf078b8f03e6725fe",
      "seller_zip_code_prefix": "6056",
      "seller_city": "",
      "seller_state": "SP"
    },
    {
      "seller_id": "2d50d6282f8aa2257819a77bfaa0efe0",
      "seller_zip_code_prefix": "14940",
      "seller_city": "ibitinga",
      "seller_state": "São Paulo"
    },
    {
      "seller_id": "b7e1750c1157341d2abd0251e07c186b",
      "seller_zip_code_prefix": "5741",
      "seller_city": "sao paulo",
      "seller_state": "SP"
    },
    {
      "seller_id": "b90e891671cffd9557f33a97dc523645",
      "seller_zip_code_prefix": "83010",
      "seller_city": "sao jose dos pinhais",
      "seller_state": "Paraná"
    },
    {
      "seller_id": "a416b6a846a11724393025641d4edd5e",
      "seller_zip_code_prefix": "3702",
      "seller_city": "sao paulo",
      "seller_state": "SP"
    },
    {
      "seller_id": "7e93a43ef30c4f03f38b393420bc753a",
      "seller_zip_code_prefix": "6429",
      "seller_city": "barueri",
      "seller_state": "SP"
    },
    {
      "seller_id": "5206cc4bc2297c833e6061c49bf9c43f",
      "seller_zip_code_prefix": "6192",
      "seller_city": "osasco",
      "seller_state": "SP"
    },
    {
      "seller_id": "f410c8873029fcc3809b9df6d0b28914",
      "seller_zip_code_prefix": "95076",
      "seller_city": "caxias do sul",
      "seller_state": "SP"
    },
    {
      "seller_id": "ef506c96320abeedfb894c34db06f478",
      "seller_zip_code_prefix": "3569",
      "seller_city": "",
      "seller_state": "SP"
    },
    {
      "seller_id": "a13aaf2d2886ab9fb30fb9a920160b8f",
      "seller_zip_code_prefix": "89207",
      "seller_city": "joinville",
      "seller_state": "Santa Catarina"
    },
    {
      "seller_id": "7299e27ed73d2ad986de7f7c77d919fa",
      "seller_zip_code_prefix": "38440",
      "seller_city": "",
      "seller_state": "Minas Gerais"
    },
    {
      "seller_id": "8a9260f2b0340411d6d2a56bcf4f7378",
      "seller_zip_code_prefix": "32180",
      "seller_city": "contagem",
      "seller_state": "MG"
    },
    {
      "seller_id": "dedcab67899479e4ea5dcc4eba47f587",
      "seller_zip_code_prefix": "89258",
      "seller_city": "jaragua do sul",
      "seller_state": "SC"
    },
    {
      "seller_id": "b2479f944e1b90cf8a5de1bbfde284d6",
      "seller_zip_code_prefix": "14940",
      "seller_city": "ibitinga",
      "seller_state": "SP"
    },
    {
      "seller_id": "7722b1df1b0e383e000397b2c11e3e19",
      "seller_zip_code_prefix": "9715",
      "seller_city": "sao bernardo do campo",
      "seller_state": "São Paulo"
    },
    {
      "seller_id": "731ef20c231d9a7103a425e83fd91271",
      "seller_zip_code_prefix": "88501",
      "seller_city": "lages - sc",
      "seller_state": "SC"
    },
    {
      "seller_id": "78813699ffac347fe27dba345a5f1551",
      "seller_zip_code_prefix": "95711",
      "seller_city": "",
      "seller_state": "RS"
    },
    {
      "seller_id": "3296662b1331dea51e744505065ae889",
      "seller_zip_code_prefix": "15805",
      "seller_city": "catanduva",
      "seller_state": "SP"
    },
    {
      "seller_id": "411f3b52d857390502ee4e4d5ceabc2d",
      "seller_zip_code_prefix": "9400",
      "seller_city": "ribeirao pires",
      "seller_state": "SP"
    },
    {
      "seller_id": "bba3293d6f5d5af2f415e004e8b93ae3",
      "seller_zip_code_prefix": "4726",
      "seller_city": "sao paulo",
      "seller_state": "SP"
    },
    {
      "seller_id": "4e7c18b98d84e05cbae3ff0ff03846c2",
      "seller_zip_code_prefix": "14882",
      "seller_city": "",
      "seller_state": "São Paulo"
    },
    {
      "seller_id": "b56906f7fd1696e043f1bcce164c487b",
      "seller_zip_code_prefix": "19830",
      "seller_city": "echapora",
      "seller_state": "SP"
    },
    {
      "seller_id": "d650b663c3b5f6fb392b6326366efa9a",
      "seller_zip_code_prefix": "6713",
      "seller_city": "cotia",
      "seller_state": "São Paulo"
    },
    {
      "seller_id": "669ae81880e08f269a64487cfb287169",
      "seller_zip_code_prefix": "89160",
      "seller_city": "",
      "seller_state": "SC"
    },
    {
      "seller_id": "c2d70ce2c5d0a2eb75e78668236e6dc8",
      "seller_zip_code_prefix": "4275",
      "seller_city": "sao paulo",
      "seller_state": "SP"
    },
    {
      "seller_id": "674207551483fec113276b67b0d871ff",
      "seller_zip_code_prefix": "18040",
      "seller_city": "sorocaba",
      "seller_state": "São Paulo"
    },
    {
      "seller_id": "abe42c5d03695b4257b5c6cbf4e6784e",
      "seller_zip_code_prefix": "21235",
      "seller_city": "rio de janeiro",
      "seller_state": "RJ"
    },
    {
      "seller_id": "1996942dc085d7773ba77a529b163cd0",
      "seller_zip_code_prefix": "14850",
      "seller_city": "",
      "seller_state": "SP"
    },
    {
      "seller_id": "79b93a308a97792cf53ac75f46da00b5",
      "seller_zip_code_prefix": "22420",
      "seller_city": "rio de janeiro",
      "seller_state": "RJ"
    },
    {
      "seller_id": "7cf4ea70955b00d6b3c22542598e2715",
      "seller_zip_code_prefix": "1125",
      "seller_city": "sao paulo",
      "seller_state": "São Paulo"
    },
    {
      "seller_id": "63ffcb71394dd8ea3872ed9ffda17c74",
      "seller_zip_code_prefix": "24813",
      "seller_city": "itaborai",
      "seller_state": "Rio de Janeiro"
    },
    {
      "seller_id": "83353a83fd769dfafa4f21a72b15e3e5",
      "seller_zip_code_prefix": "5786",
      "seller_city": "sao paulo",
      "seller_state": "São Paulo"
    },
    {
      "seller_id": "cda598c48d7c614bc1cad7d8ff6f0010",
      "seller_zip_code_prefix": "15137",
      "seller_city": "",
      "seller_state": "SP"
    },
    {
      "seller_id": "d4910f1cdcfdabd48d6b316e395d4a23",
      "seller_zip_code_prefix": "9190",
      "seller_city": "santo andre",
      "seller_state": "SP"
    },
    {
      "seller_id": "709e16e2b25c7474d980076c6bfc4806",
      "seller_zip_code_prefix": "16200",
      "seller_city": "birigui",
      "seller_state": "São Paulo"
    },
    {
      "seller_id": "9dc79dd988ac42f4d56c340d7048420a",
      "seller_zip_code_prefix": "3569",
      "seller_city": "",
      "seller_state": "SP"
    },
    {
      "seller_id": "276677b5d08786d5dce7c2149dcce48b",
      "seller_zip_code_prefix": "31730",
      "seller_city": "belo horizonte",
      "seller_state": "MG"
    }
  ],
  "total": 3095,
  "limit": 100,
  "offset": 0,
  "has_next": true
}